multicycle.sim/sim_1/behav/xsim/multi_tb.vcd
$date
   Sat Jun 28 21:03:19 2025
$end

$version
  2024.2.0
  $dumpfile ("multi_tb.vcd") 
$end

$timescale
  1ps
$end

$scope module testbench $end
$var reg 1 ! clk $end
$var reg 1 " reset $end
$var wire 32 # WriteData [31:0] $end
$var wire 32 $ DataAdr [31:0] $end
$var wire 1 % MemWrite $end
$scope module dut $end
$var wire 1 & clk $end
$var wire 1 ' reset $end
$var wire 32 # WriteData [31:0] $end
$var wire 32 $ Adr [31:0] $end
$var wire 1 % MemWrite $end
$var wire 32 ( PC [31:0] $end
$var wire 32 ) Instr [31:0] $end
$var wire 32 * ReadData [31:0] $end
$scope module arm $end
$var wire 1 & clk $end
$var wire 1 ' reset $end
$var wire 1 % MemWrite $end
$var wire 32 $ Adr [31:0] $end
$var wire 32 # WriteData [31:0] $end
$var wire 32 * ReadData [31:0] $end
$var wire 32 + Instr [31:0] $end
$var wire 4 , ALUFlags [3:0] $end
$var wire 1 - PCWrite $end
$var wire 1 . RegWrite $end
$var wire 1 / IRWrite $end
$var wire 1 0 AdrSrc $end
$var wire 2 1 RegSrc [1:0] $end
$var wire 2 2 ALUSrcA [1:0] $end
$var wire 2 3 ALUSrcB [1:0] $end
$var wire 2 4 ImmSrc [1:0] $end
$var wire 3 5 ALUControl [2:0] $end
$var wire 2 6 ResultSrc [1:0] $end
$scope module c $end
$var wire 1 & clk $end
$var wire 1 ' reset $end
$var wire 20 7 Instr [31:12] $end
$var wire 4 , ALUFlags [3:0] $end
$var wire 1 - PCWrite $end
$var wire 1 % MemWrite $end
$var wire 1 . RegWrite $end
$var wire 1 / IRWrite $end
$var wire 1 0 AdrSrc $end
$var wire 2 1 RegSrc [1:0] $end
$var wire 2 2 ALUSrcA [1:0] $end
$var wire 2 3 ALUSrcB [1:0] $end
$var wire 2 6 ResultSrc [1:0] $end
$var wire 2 4 ImmSrc [1:0] $end
$var wire 3 5 ALUControl [2:0] $end
$var wire 2 8 FlagW [1:0] $end
$var wire 1 9 PCS $end
$var wire 1 : NextPC $end
$var wire 1 ; RegW $end
$var wire 1 < MemW $end
$scope module dec $end
$var wire 1 & clk $end
$var wire 1 ' reset $end
$var wire 2 = Op [27:26] $end
$var wire 6 > Funct [25:20] $end
$var wire 4 ? Rd [15:12] $end
$var reg 2 @ FlagW [1:0] $end
$var wire 1 9 PCS $end
$var wire 1 : NextPC $end
$var wire 1 ; RegW $end
$var wire 1 < MemW $end
$var wire 1 / IRWrite $end
$var wire 1 0 AdrSrc $end
$var wire 2 6 ResultSrc [1:0] $end
$var wire 2 2 ALUSrcA [1:0] $end
$var wire 2 3 ALUSrcB [1:0] $end
$var wire 2 4 ImmSrc [1:0] $end
$var reg 2 A RegSrc [1:0] $end
$var reg 3 B ALUControl [2:0] $end
$var wire 1 C Branch $end
$var wire 1 D ALUOp $end
$scope module fsm $end
$var wire 1 & clk $end
$var wire 1 ' reset $end
$var wire 2 = Op [27:26] $end
$var wire 6 > Funct [25:20] $end
$var wire 1 / IRWrite $end
$var wire 1 0 AdrSrc $end
$var wire 2 2 ALUSrcA [1:0] $end
$var wire 2 3 ALUSrcB [1:0] $end
$var wire 2 6 ResultSrc [1:0] $end
$var wire 1 : NextPC $end
$var wire 1 ; RegW $end
$var wire 1 < MemW $end
$var wire 1 C Branch $end
$var wire 1 D ALUOp $end
$var reg 4 E state [3:0] $end
$var reg 4 F nextstate [3:0] $end
$var reg 13 G controls [12:0] $end
$upscope $end
$upscope $end
$scope module cl $end
$var wire 1 & clk $end
$var wire 1 ' reset $end
$var wire 4 H Cond [31:28] $end
$var wire 4 , ALUFlags [3:0] $end
$var wire 2 8 FlagW [1:0] $end
$var wire 1 9 PCS $end
$var wire 1 : NextPC $end
$var wire 1 ; RegW $end
$var wire 1 < MemW $end
$var wire 1 - PCWrite $end
$var wire 1 . RegWrite $end
$var wire 1 % MemWrite $end
$var wire 2 I FlagWrite [1:0] $end
$var wire 4 J Flags [3:0] $end
$var wire 1 K CondEx $end
$var wire 1 L CondExDelayed $end
$scope module flagreg1 $end
$var wire 1 & clk $end
$var wire 1 ' reset $end
$var wire 1 M en $end
$var wire 2 N d [3:2] $end
$var reg 2 O q [1:0] $end
$upscope $end
$scope module flagreg0 $end
$var wire 1 & clk $end
$var wire 1 ' reset $end
$var wire 1 P en $end
$var wire 2 Q d [1:0] $end
$var reg 2 R q [1:0] $end
$upscope $end
$scope module cc $end
$var wire 4 H Cond [31:28] $end
$var wire 4 J Flags [3:0] $end
$var reg 1 S CondEx $end
$var wire 1 T neg $end
$var wire 1 U zero $end
$var wire 1 V carry $end
$var wire 1 W overflow $end
$var wire 1 X ge $end
$upscope $end
$scope module condreg $end
$var wire 1 & clk $end
$var wire 1 ' reset $end
$var wire 1 K d [0:0] $end
$var reg 1 Y q [0:0] $end
$upscope $end
$upscope $end
$upscope $end
$scope module dp $end
$var wire 1 & clk $end
$var wire 1 ' reset $end
$var wire 32 $ Adr [31:0] $end
$var wire 32 # WriteData [31:0] $end
$var wire 32 * ReadData [31:0] $end
$var wire 32 + Instr [31:0] $end
$var wire 4 , ALUFlags [3:0] $end
$var wire 1 - PCWrite $end
$var wire 1 . RegWrite $end
$var wire 1 / IRWrite $end
$var wire 1 0 AdrSrc $end
$var wire 2 1 RegSrc [1:0] $end
$var wire 2 2 ALUSrcA [1:0] $end
$var wire 2 3 ALUSrcB [1:0] $end
$var wire 2 6 ResultSrc [1:0] $end
$var wire 2 4 ImmSrc [1:0] $end
$var wire 3 5 ALUControl [2:0] $end
$var wire 32 Z PCNext [31:0] $end
$var wire 32 [ PC [31:0] $end
$var wire 32 \ ExtImm [31:0] $end
$var wire 32 ] SrcA [31:0] $end
$var wire 32 ^ SrcB [31:0] $end
$var wire 32 _ Result [31:0] $end
$var wire 32 ` Data [31:0] $end
$var wire 32 a RD1 [31:0] $end
$var wire 32 b RD2 [31:0] $end
$var wire 32 c A [31:0] $end
$var wire 32 d ALUResult [31:0] $end
$var wire 32 e ALUOut [31:0] $end
$var wire 4 f RA1 [3:0] $end
$var wire 4 g RA2 [3:0] $end
$scope module pcReg $end
$var wire 1 & clk $end
$var wire 1 ' reset $end
$var wire 1 - en $end
$var wire 32 _ d [31:0] $end
$var reg 32 h q [31:0] $end
$upscope $end
$scope module adrMux $end
$var wire 32 [ d0 [31:0] $end
$var wire 32 _ d1 [31:0] $end
$var wire 1 0 s $end
$var wire 32 $ y [31:0] $end
$upscope $end
$scope module instrReg $end
$var wire 1 & clk $end
$var wire 1 ' reset $end
$var wire 1 / en $end
$var wire 32 * d [31:0] $end
$var reg 32 i q [31:0] $end
$upscope $end
$scope module readDataReg $end
$var wire 1 & clk $end
$var wire 1 ' reset $end
$var wire 32 * d [31:0] $end
$var reg 32 j q [31:0] $end
$upscope $end
$scope module ra1Mux $end
$var wire 4 k d0 [19:16] $end
$var wire 4 l d1 [3:0] $end
$var wire 1 m s $end
$var wire 4 f y [3:0] $end
$upscope $end
$scope module ra2Mux $end
$var wire 4 n d0 [3:0] $end
$var wire 4 ? d1 [15:12] $end
$var wire 1 o s $end
$var wire 4 g y [3:0] $end
$upscope $end
$scope module rf $end
$var wire 1 & clk $end
$var wire 1 . we3 $end
$var wire 4 f ra1 [3:0] $end
$var wire 4 g ra2 [3:0] $end
$var wire 4 ? wa3 [15:12] $end
$var wire 32 _ wd3 [31:0] $end
$var wire 32 _ r15 [31:0] $end
$var wire 32 a rd1 [31:0] $end
$var wire 32 b rd2 [31:0] $end
$upscope $end
$scope module ext $end
$var wire 24 p Instr [23:0] $end
$var wire 2 4 ImmSrc [1:0] $end
$var reg 32 q ExtImm [31:0] $end
$upscope $end
$scope module r1Reg $end
$var wire 1 & clk $end
$var wire 1 ' reset $end
$var wire 32 a d [31:0] $end
$var reg 32 r q [31:0] $end
$upscope $end
$scope module r2Reg $end
$var wire 1 & clk $end
$var wire 1 ' reset $end
$var wire 32 b d [31:0] $end
$var reg 32 s q [31:0] $end
$upscope $end
$scope module srcamux $end
$var wire 32 c d0 [31:0] $end
$var wire 32 [ d1 [31:0] $end
$var wire 1 t s $end
$var wire 32 ] y [31:0] $end
$upscope $end
$scope module srcbmux $end
$var wire 32 # d0 [31:0] $end
$var wire 32 \ d1 [31:0] $end
$var wire 32 u d2 [31:0] $end
$var wire 2 3 s [1:0] $end
$var wire 32 ^ y [31:0] $end
$upscope $end
$scope module alu $end
$var wire 32 ] a [31:0] $end
$var wire 32 ^ b [31:0] $end
$var wire 3 5 ALUControl [2:0] $end
$var reg 32 v Result [31:0] $end
$var wire 4 , ALUFlags [3:0] $end
$var wire 1 w neg $end
$var wire 1 x zero $end
$var wire 1 y carry $end
$var wire 1 z overflow $end
$var wire 32 { condinvb [31:0] $end
$var wire 33 | sum [32:0] $end
$upscope $end
$scope module aluResReg $end
$var wire 1 & clk $end
$var wire 1 ' reset $end
$var wire 32 d d [31:0] $end
$var reg 32 } q [31:0] $end
$upscope $end
$scope module resMux $end
$var wire 32 e d0 [31:0] $end
$var wire 32 ` d1 [31:0] $end
$var wire 32 d d2 [31:0] $end
$var wire 2 6 s [1:0] $end
$var wire 32 _ y [31:0] $end
$upscope $end
$upscope $end
$upscope $end
$scope module mem $end
$var wire 1 & clk $end
$var wire 1 % we $end
$var wire 32 $ a [31:0] $end
$var wire 32 # wd [31:0] $end
$var wire 32 * rd [31:0] $end
$upscope $end
$upscope $end
$upscope $end
$enddefinitions $end

#0
$dumpvars
1!
1"
b0 #
b0 $
0%
1&
1'
bz (
bz )
b11100000010011110000000000001111 *
b0 +
b0 ,
1-
0.
1/
00
b0 1
b1 2
b10 3
b0 4
b0 5
b10 6
b0 7
b0 8
09
1:
0;
0<
b0 =
b0 >
b0 ?
b0 @
b0 A
b0 B
0C
0D
b0 E
b1 F
b1000101001100 G
b0 H
b0 I
b0 J
0K
0L
0M
b0 N
b0 O
0P
b0 Q
b0 R
0S
0T
0U
0V
0W
1X
0Y
bz Z
b0 [
b0 \
b0 ]
b100 ^
b100 _
b0 `
bx a
bx b
b0 c
b100 d
b0 e
b0 f
b0 g
b0 h
b0 i
b0 j
b0 k
b1111 l
0m
b0 n
0o
b0 p
b0 q
b0 r
b0 s
1t
b100 u
b100 v
0w
0x
0y
0z
b100 {
b100 |
b0 }
$end

#5000
0!
0&

#10000
1!
1&

#15000
0!
0&

#20000
1!
1&

#22000
0"
0'

#25000
0!
0&

#30000
1!
bx #
b100 $
1&
bx *
b11100000010011110000000000001111 +
0-
0/
b11100000010011110000 7
0:
b0 =
b100 >
b0 ?
b1 E
b110 F
b1001100 G
b1110 H
1K
1S
b100 [
b1111 \
b100 ]
b1000 _
b11100000010011110000000000001111 `
b1000 a
b1000 b
bx c
b1000 d
b100 e
b1111 f
b1111 g
b100 h
b11100000010011110000000000001111 i
b11100000010011110000000000001111 j
b1111 k
b1111 n
b10011110000000000001111 p
b1111 q
bx r
bx s
b1000 v
b1000 |
b100 }

#35000
0!
0&

#40000
1!
b1000 #
1&
b110 ,
b0 2
b0 3
b1 5
b0 6
b1 B
1D
b110 E
b1000 F
b1 G
1L
b1 N
b10 Q
1Y
b1000 ]
b1000 ^
bx `
b1000 c
b0 d
b1000 e
bx j
b1000 r
b1000 s
0t
b0 v
1x
1y
b11111111111111111111111111110111 {
b100000000000000000000000000000000 |
b1000 }

#45000
0!
0&

#50000
1!
1&
b0 ,
1.
b0 5
1;
b0 B
0D
b1000 E
b0 F
b1000000000 G
b0 N
b0 Q
b0 _
b0 a
b0 b
b10000 d
b0 e
b10000 v
0x
0y
b1000 {
b10000 |
b0 }

#55000
0!
0&

#60000
1!
b0 #
1&
b0 ,
1-
0.
1/
b1 2
b10 3
b10 6
1:
0;
b0 E
b1 F
b1000101001100 G
b0 N
b0 Q
b100 ]
b100 ^
b1000 _
b1000 a
b1000 b
b0 c
b1000 d
b10000 e
b0 r
b0 s
1t
b1000 v
0x
b100 {
b1000 |
b10000 }

#65000
0!
0&

#70000
1!
b1000 #
b1000 $
1&
bx +
0-
0/
bx 1
bx 4
bx 7
0:
bx =
bx >
bx ?
bx A
b1 E
b1010 F
b1001100 G
bx H
xK
xS
b1000 [
bx \
b1000 ]
b1100 _
bx a
bx b
b1000 c
b1100 d
b1000 e
bx f
bx g
b1000 h
bx i
bx k
xm
bx n
xo
bx p
bx q
b1000 r
b1000 s
b1100 v
b1100 |
b1000 }

#75000
0!
0&

#80000
1!
bx #
bx $
x%
1&
bx ,
x-
x.
x/
x0
bx 2
bx 3
bx 6
x9
x:
x;
x<
xC
xD
b1010 E
b0 F
bx G
xL
bx N
bx Q
xY
bx ]
bx ^
bx _
bx c
bx d
b1100 e
bx r
bx s
xt
bx v
xw
xx
xy
xz
bx {
bx |
b1100 }

#85000
0!
0&

#90000
1!
b1000 $
0%
1&
b0 ,
1-
0.
1/
00
b1 2
b10 3
b10 6
09
1:
0;
0<
0C
0D
b0 E
b1 F
b1000101001100 G
b0 N
b0 Q
b1000 ]
b100 ^
b1100 _
b1100 d
bx e
1t
b1100 v
0w
0x
0y
0z
b100 {
b1100 |
bx }

#95000
0!
0&

#100000
1!
b1100 $
1&
0-
0/
0:
b1 E
b1010 F
b1001100 G
b1100 [
b1100 ]
b10000 _
b10000 d
b1100 e
b1100 h
b10000 v
b10000 |
b1100 }

#105000
0!
0&

#110000
1!
bx $
x%
1&
bx ,
x-
x.
x/
x0
bx 2
bx 3
bx 6
x9
x:
x;
x<
xC
xD
b1010 E
b0 F
bx G
bx N
bx Q
bx ]
bx ^
bx _
bx d
b10000 e
xt
bx v
xw
xx
xy
xz
bx {
bx |
b10000 }

#115000
0!
0&

#120000
1!
b1100 $
0%
1&
b0 ,
1-
0.
1/
00
b1 2
b10 3
b10 6
09
1:
0;
0<
0C
0D
b0 E
b1 F
b1000101001100 G
b0 N
b0 Q
b1100 ]
b100 ^
b10000 _
b10000 d
bx e
1t
b10000 v
0w
0x
0y
0z
b100 {
b10000 |
bx }

#125000
0!
0&

#130000
1!
b10000 $
1&
0-
0/
0:
b1 E
b1010 F
b1001100 G
b10000 [
b10000 ]
b10100 _
b10100 d
b10000 e
b10000 h
b10100 v
b10100 |
b10000 }

#135000
0!
0&

#140000
1!
bx $
x%
1&
bx ,
x-
x.
x/
x0
bx 2
bx 3
bx 6
x9
x:
x;
x<
xC
xD
b1010 E
b0 F
bx G
bx N
bx Q
bx ]
bx ^
bx _
bx d
b10100 e
xt
bx v
xw
xx
xy
xz
bx {
bx |
b10100 }

#145000
0!
0&

#150000
1!
b10000 $
0%
1&
b0 ,
1-
0.
1/
00
b1 2
b10 3
b10 6
09
1:
0;
0<
0C
0D
b0 E
b1 F
b1000101001100 G
b0 N
b0 Q
b10000 ]
b100 ^
b10100 _
b10100 d
bx e
1t
b10100 v
0w
0x
0y
0z
b100 {
b10100 |
bx }

#155000
0!
0&

#160000
1!
b10100 $
1&
0-
0/
0:
b1 E
b1010 F
b1001100 G
b10100 [
b10100 ]
b11000 _
b11000 d
b10100 e
b10100 h
b11000 v
b11000 |
b10100 }

#165000
0!
0&

#170000
1!
bx $
x%
1&
bx ,
x-
x.
x/
x0
bx 2
bx 3
bx 6
x9
x:
x;
x<
xC
xD
b1010 E
b0 F
bx G
bx N
bx Q
bx ]
bx ^
bx _
bx d
b11000 e
xt
bx v
xw
xx
xy
xz
bx {
bx |
b11000 }

#175000
0!
0&

#180000
1!
b10100 $
0%
1&
b0 ,
1-
0.
1/
00
b1 2
b10 3
b10 6
09
1:
0;
0<
0C
0D
b0 E
b1 F
b1000101001100 G
b0 N
b0 Q
b10100 ]
b100 ^
b11000 _
b11000 d
bx e
1t
b11000 v
0w
0x
0y
0z
b100 {
b11000 |
bx }

#185000
0!
0&

#190000
1!
b11000 $
1&
0-
0/
0:
b1 E
b1010 F
b1001100 G
b11000 [
b11000 ]
b11100 _
b11100 d
b11000 e
b11000 h
b11100 v
b11100 |
b11000 }

#195000
0!
0&

#200000
1!
bx $
x%
1&
bx ,
x-
x.
x/
x0
bx 2
bx 3
bx 6
x9
x:
x;
x<
xC
xD
b1010 E
b0 F
bx G
bx N
bx Q
bx ]
bx ^
bx _
bx d
b11100 e
xt
bx v
xw
xx
xy
xz
bx {
bx |
b11100 }

#205000
0!
0&

#210000
1!
b11000 $
0%
1&
b0 ,
1-
0.
1/
00
b1 2
b10 3
b10 6
09
1:
0;
0<
0C
0D
b0 E
b1 F
b1000101001100 G
b0 N
b0 Q
b11000 ]
b100 ^
b11100 _
b11100 d
bx e
1t
b11100 v
0w
0x
0y
0z
b100 {
b11100 |
bx }

#215000
0!
0&

#220000
1!
b11100 $
1&
0-
0/
0:
b1 E
b1010 F
b1001100 G
b11100 [
b11100 ]
b100000 _
b100000 d
b11100 e
b11100 h
b100000 v
b100000 |
b11100 }

#225000
0!
0&

#230000
1!
bx $
x%
1&
bx ,
x-
x.
x/
x0
bx 2
bx 3
bx 6
x9
x:
x;
x<
xC
xD
b1010 E
b0 F
bx G
bx N
bx Q
bx ]
bx ^
bx _
bx d
b100000 e
xt
bx v
xw
xx
xy
xz
bx {
bx |
b100000 }

#235000
0!
0&

#240000
1!
b11100 $
0%
1&
b0 ,
1-
0.
1/
00
b1 2
b10 3
b10 6
09
1:
0;
0<
0C
0D
b0 E
b1 F
b1000101001100 G
b0 N
b0 Q
b11100 ]
b100 ^
b100000 _
b100000 d
bx e
1t
b100000 v
0w
0x
0y
0z
b100 {
b100000 |
bx }

#245000
0!
0&

#250000
1!
b100000 $
1&
0-
0/
0:
b1 E
b1010 F
b1001100 G
b100000 [
b100000 ]
b100100 _
b100100 d
b100000 e
b100000 h
b100100 v
b100100 |
b100000 }

#255000
0!
0&

#260000
1!
bx $
x%
1&
bx ,
x-
x.
x/
x0
bx 2
bx 3
bx 6
x9
x:
x;
x<
xC
xD
b1010 E
b0 F
bx G
bx N
bx Q
bx ]
bx ^
bx _
bx d
b100100 e
xt
bx v
xw
xx
xy
xz
bx {
bx |
b100100 }

#265000
0!
0&

#270000
1!
b100000 $
0%
1&
b0 ,
1-
0.
1/
00
b1 2
b10 3
b10 6
09
1:
0;
0<
0C
0D
b0 E
b1 F
b1000101001100 G
b0 N
b0 Q
b100000 ]
b100 ^
b100100 _
b100100 d
bx e
1t
b100100 v
0w
0x
0y
0z
b100 {
b100100 |
bx }

#275000
0!
0&

#280000
1!
b100100 $
1&
0-
0/
0:
b1 E
b1010 F
b1001100 G
b100100 [
b100100 ]
b101000 _
b101000 d
b100100 e
b100100 h
b101000 v
b101000 |
b100100 }

#285000
0!
0&

#290000
1!
bx $
x%
1&
bx ,
x-
x.
x/
x0
bx 2
bx 3
bx 6
x9
x:
x;
x<
xC
xD
b1010 E
b0 F
bx G
bx N
bx Q
bx ]
bx ^
bx _
bx d
b101000 e
xt
bx v
xw
xx
xy
xz
bx {
bx |
b101000 }

#295000
0!
0&

#300000
1!
b100100 $
0%
1&
b0 ,
1-
0.
1/
00
b1 2
b10 3
b10 6
09
1:
0;
0<
0C
0D
b0 E
b1 F
b1000101001100 G
b0 N
b0 Q
b100100 ]
b100 ^
b101000 _
b101000 d
bx e
1t
b101000 v
0w
0x
0y
0z
b100 {
b101000 |
bx }

#305000
0!
0&

#310000
1!
b101000 $
1&
0-
0/
0:
b1 E
b1010 F
b1001100 G
b101000 [
b101000 ]
b101100 _
b101100 d
b101000 e
b101000 h
b101100 v
b101100 |
b101000 }

#315000
0!
0&

#320000
1!
bx $
x%
1&
bx ,
x-
x.
x/
x0
bx 2
bx 3
bx 6
x9
x:
x;
x<
xC
xD
b1010 E
b0 F
bx G
bx N
bx Q
bx ]
bx ^
bx _
bx d
b101100 e
xt
bx v
xw
xx
xy
xz
bx {
bx |
b101100 }

#325000
0!
0&

#330000
1!
b101000 $
0%
1&
b0 ,
1-
0.
1/
00
b1 2
b10 3
b10 6
09
1:
0;
0<
0C
0D
b0 E
b1 F
b1000101001100 G
b0 N
b0 Q
b101000 ]
b100 ^
b101100 _
b101100 d
bx e
1t
b101100 v
0w
0x
0y
0z
b100 {
b101100 |
bx }

#335000
0!
0&

#340000
1!
b101100 $
1&
0-
0/
0:
b1 E
b1010 F
b1001100 G
b101100 [
b101100 ]
b110000 _
b110000 d
b101100 e
b101100 h
b110000 v
b110000 |
b101100 }

#345000
0!
0&

#350000
1!
bx $
x%
1&
bx ,
x-
x.
x/
x0
bx 2
bx 3
bx 6
x9
x:
x;
x<
xC
xD
b1010 E
b0 F
bx G
bx N
bx Q
bx ]
bx ^
bx _
bx d
b110000 e
xt
bx v
xw
xx
xy
xz
bx {
bx |
b110000 }

#355000
0!
0&

#360000
1!
b101100 $
0%
1&
b0 ,
1-
0.
1/
00
b1 2
b10 3
b10 6
09
1:
0;
0<
0C
0D
b0 E
b1 F
b1000101001100 G
b0 N
b0 Q
b101100 ]
b100 ^
b110000 _
b110000 d
bx e
1t
b110000 v
0w
0x
0y
0z
b100 {
b110000 |
bx }

#365000
0!
0&

#370000
1!
b110000 $
1&
0-
0/
0:
b1 E
b1010 F
b1001100 G
b110000 [
b110000 ]
b110100 _
b110100 d
b110000 e
b110000 h
b110100 v
b110100 |
b110000 }

#375000
0!
0&

#380000
1!
bx $
x%
1&
bx ,
x-
x.
x/
x0
bx 2
bx 3
bx 6
x9
x:
x;
x<
xC
xD
b1010 E
b0 F
bx G
bx N
bx Q
bx ]
bx ^
bx _
bx d
b110100 e
xt
bx v
xw
xx
xy
xz
bx {
bx |
b110100 }

#385000
0!
0&

#390000
1!
b110000 $
0%
1&
b0 ,
1-
0.
1/
00
b1 2
b10 3
b10 6
09
1:
0;
0<
0C
0D
b0 E
b1 F
b1000101001100 G
b0 N
b0 Q
b110000 ]
b100 ^
b110100 _
b110100 d
bx e
1t
b110100 v
0w
0x
0y
0z
b100 {
b110100 |
bx }

#395000
0!
0&

#400000
1!
b110100 $
1&
0-
0/
0:
b1 E
b1010 F
b1001100 G
b110100 [
b110100 ]
b111000 _
b111000 d
b110100 e
b110100 h
b111000 v
b111000 |
b110100 }

#405000
0!
0&

#410000
1!
bx $
x%
1&
bx ,
x-
x.
x/
x0
bx 2
bx 3
bx 6
x9
x:
x;
x<
xC
xD
b1010 E
b0 F
bx G
bx N
bx Q
bx ]
bx ^
bx _
bx d
b111000 e
xt
bx v
xw
xx
xy
xz
bx {
bx |
b111000 }

#415000
0!
0&

#420000
1!
b110100 $
0%
1&
b0 ,
1-
0.
1/
00
b1 2
b10 3
b10 6
09
1:
0;
0<
0C
0D
b0 E
b1 F
b1000101001100 G
b0 N
b0 Q
b110100 ]
b100 ^
b111000 _
b111000 d
bx e
1t
b111000 v
0w
0x
0y
0z
b100 {
b111000 |
bx }

#425000
0!
0&

#430000
1!
b111000 $
1&
0-
0/
0:
b1 E
b1010 F
b1001100 G
b111000 [
b111000 ]
b111100 _
b111100 d
b111000 e
b111000 h
b111100 v
b111100 |
b111000 }

#435000
0!
0&

#440000
1!
bx $
x%
1&
bx ,
x-
x.
x/
x0
bx 2
bx 3
bx 6
x9
x:
x;
x<
xC
xD
b1010 E
b0 F
bx G
bx N
bx Q
bx ]
bx ^
bx _
bx d
b111100 e
xt
bx v
xw
xx
xy
xz
bx {
bx |
b111100 }

#445000
0!
0&

#450000
1!
b111000 $
0%
1&
b0 ,
1-
0.
1/
00
b1 2
b10 3
b10 6
09
1:
0;
0<
0C
0D
b0 E
b1 F
b1000101001100 G
b0 N
b0 Q
b111000 ]
b100 ^
b111100 _
b111100 d
bx e
1t
b111100 v
0w
0x
0y
0z
b100 {
b111100 |
bx }

#455000
0!
0&

#460000
1!
b111100 $
1&
0-
0/
0:
b1 E
b1010 F
b1001100 G
b111100 [
b111100 ]
b1000000 _
b1000000 d
b111100 e
b111100 h
b1000000 v
b1000000 |
b111100 }

#465000
0!
0&

#470000
1!
bx $
x%
1&
bx ,
x-
x.
x/
x0
bx 2
bx 3
bx 6
x9
x:
x;
x<
xC
xD
b1010 E
b0 F
bx G
bx N
bx Q
bx ]
bx ^
bx _
bx d
b1000000 e
xt
bx v
xw
xx
xy
xz
bx {
bx |
b1000000 }

#475000
0!
0&

#480000
1!
b111100 $
0%
1&
b0 ,
1-
0.
1/
00
b1 2
b10 3
b10 6
09
1:
0;
0<
0C
0D
b0 E
b1 F
b1000101001100 G
b0 N
b0 Q
b111100 ]
b100 ^
b1000000 _
b1000000 d
bx e
1t
b1000000 v
0w
0x
0y
0z
b100 {
b1000000 |
bx }

#485000
0!
0&

#490000
1!
b1000000 $
1&
0-
0/
0:
b1 E
b1010 F
b1001100 G
b1000000 [
b1000000 ]
b1000100 _
b1000100 d
b1000000 e
b1000000 h
b1000100 v
b1000100 |
b1000000 }

#495000
0!
0&

#500000
1!
bx $
x%
1&
bx ,
x-
x.
x/
x0
bx 2
bx 3
bx 6
x9
x:
x;
x<
xC
xD
b1010 E
b0 F
bx G
bx N
bx Q
bx ]
bx ^
bx _
bx d
b1000100 e
xt
bx v
xw
xx
xy
xz
bx {
bx |
b1000100 }

#505000
0!
0&

#510000
1!
b1000000 $
0%
1&
b0 ,
1-
0.
1/
00
b1 2
b10 3
b10 6
09
1:
0;
0<
0C
0D
b0 E
b1 F
b1000101001100 G
b0 N
b0 Q
b1000000 ]
b100 ^
b1000100 _
b1000100 d
bx e
1t
b1000100 v
0w
0x
0y
0z
b100 {
b1000100 |
bx }

#515000
0!
0&

#520000
1!
b1000100 $
1&
0-
0/
0:
b1 E
b1010 F
b1001100 G
b1000100 [
b1000100 ]
b1001000 _
b1001000 d
b1000100 e
b1000100 h
b1001000 v
b1001000 |
b1000100 }

#525000
0!
0&

#530000
1!
bx $
x%
1&
bx ,
x-
x.
x/
x0
bx 2
bx 3
bx 6
x9
x:
x;
x<
xC
xD
b1010 E
b0 F
bx G
bx N
bx Q
bx ]
bx ^
bx _
bx d
b1001000 e
xt
bx v
xw
xx
xy
xz
bx {
bx |
b1001000 }

#535000
0!
0&

#540000
1!
b1000100 $
0%
1&
b0 ,
1-
0.
1/
00
b1 2
b10 3
b10 6
09
1:
0;
0<
0C
0D
b0 E
b1 F
b1000101001100 G
b0 N
b0 Q
b1000100 ]
b100 ^
b1001000 _
b1001000 d
bx e
1t
b1001000 v
0w
0x
0y
0z
b100 {
b1001000 |
bx }

#545000
0!
0&

#550000
1!
b1001000 $
1&
0-
0/
0:
b1 E
b1010 F
b1001100 G
b1001000 [
b1001000 ]
b1001100 _
b1001100 d
b1001000 e
b1001000 h
b1001100 v
b1001100 |
b1001000 }

#555000
0!
0&

#560000
1!
bx $
x%
1&
bx ,
x-
x.
x/
x0
bx 2
bx 3
bx 6
x9
x:
x;
x<
xC
xD
b1010 E
b0 F
bx G
bx N
bx Q
bx ]
bx ^
bx _
bx d
b1001100 e
xt
bx v
xw
xx
xy
xz
bx {
bx |
b1001100 }

#565000
0!
0&

#570000
1!
b1001000 $
0%
1&
b0 ,
1-
0.
1/
00
b1 2
b10 3
b10 6
09
1:
0;
0<
0C
0D
b0 E
b1 F
b1000101001100 G
b0 N
b0 Q
b1001000 ]
b100 ^
b1001100 _
b1001100 d
bx e
1t
b1001100 v
0w
0x
0y
0z
b100 {
b1001100 |
bx }

#575000
0!
0&

#580000
1!
b1001100 $
1&
0-
0/
0:
b1 E
b1010 F
b1001100 G
b1001100 [
b1001100 ]
b1010000 _
b1010000 d
b1001100 e
b1001100 h
b1010000 v
b1010000 |
b1001100 }

#585000
0!
0&

#590000
1!
bx $
x%
1&
bx ,
x-
x.
x/
x0
bx 2
bx 3
bx 6
x9
x:
x;
x<
xC
xD
b1010 E
b0 F
bx G
bx N
bx Q
bx ]
bx ^
bx _
bx d
b1010000 e
xt
bx v
xw
xx
xy
xz
bx {
bx |
b1010000 }

#595000
0!
0&

#600000
1!
b1001100 $
0%
1&
b0 ,
1-
0.
1/
00
b1 2
b10 3
b10 6
09
1:
0;
0<
0C
0D
b0 E
b1 F
b1000101001100 G
b0 N
b0 Q
b1001100 ]
b100 ^
b1010000 _
b1010000 d
bx e
1t
b1010000 v
0w
0x
0y
0z
b100 {
b1010000 |
bx }

#605000
0!
0&

#610000
1!
b1010000 $
1&
0-
0/
0:
b1 E
b1010 F
b1001100 G
b1010000 [
b1010000 ]
b1010100 _
b1010100 d
b1010000 e
b1010000 h
b1010100 v
b1010100 |
b1010000 }

#615000
0!
0&

#620000
1!
bx $
x%
1&
bx ,
x-
x.
x/
x0
bx 2
bx 3
bx 6
x9
x:
x;
x<
xC
xD
b1010 E
b0 F
bx G
bx N
bx Q
bx ]
bx ^
bx _
bx d
b1010100 e
xt
bx v
xw
xx
xy
xz
bx {
bx |
b1010100 }

#625000
0!
0&

#630000
1!
b1010000 $
0%
1&
b0 ,
1-
0.
1/
00
b1 2
b10 3
b10 6
09
1:
0;
0<
0C
0D
b0 E
b1 F
b1000101001100 G
b0 N
b0 Q
b1010000 ]
b100 ^
b1010100 _
b1010100 d
bx e
1t
b1010100 v
0w
0x
0y
0z
b100 {
b1010100 |
bx }

#635000
0!
0&

#640000
1!
b1010100 $
1&
0-
0/
0:
b1 E
b1010 F
b1001100 G
b1010100 [
b1010100 ]
b1011000 _
b1011000 d
b1010100 e
b1010100 h
b1011000 v
b1011000 |
b1010100 }

#645000
0!
0&

#650000
1!
bx $
x%
1&
bx ,
x-
x.
x/
x0
bx 2
bx 3
bx 6
x9
x:
x;
x<
xC
xD
b1010 E
b0 F
bx G
bx N
bx Q
bx ]
bx ^
bx _
bx d
b1011000 e
xt
bx v
xw
xx
xy
xz
bx {
bx |
b1011000 }

#655000
0!
0&

